序号,发布时间,发病时间,回乡时间,年龄,性别,地级市,区县,街道村落,确诊,死亡,治愈,疑似,武汉接触史,飞机,航班号,火车,火车号,汽车,汽车车牌,救治医院,备注
1,2020-01-22,2020-01-19,2020-01-15,,男,太原,,,1,0,0,0,1,0,,1,,1,滴滴,太原市第四人民医院,1月22日，国家卫生健康委确认山西省首例新型冠状病毒感染的肺炎确诊病例。患者，男，太原市人。2020年1月12日至15日在武汉旅游。15日从武汉乘动车、中转石家庄返回太原。19日出现发热伴头痛症状。20日乘坐滴滴专车到山西白求恩医院发热门诊就诊，主要症状为发热38.2℃、头痛、右下肺高密度影。经省、市疾控中心采用优化后的检测试剂盒检测，呈新型冠状病毒核酸阳性。21日转至山西省定点医院（太原市第四人民医院）隔离治疗。21日晚将标本送至中国疾控中心进行病毒核酸复核检测，结果为阳性。
2,2020-01-24,2020-01-23,2020-01-20,35,男,大同,,,1,0,0,0,1,0,,1,,,,大同市第四人民医院,患者纪某，男，35岁，在武汉市工作。1月19日乘坐火车回同，1月20日到达大同，居住其父母家。1月23日出现发热、乏力等症状，前往大同市第四人民医院诊治。1月23日晚上采集咽拭子进行新型冠状病毒核酸检测，24日下午市疾控中心检测结果为可疑阳性。1月24日下午，标本送至山西省疾控中心进行病毒核酸复核检测，呈新型冠状病毒核酸阳性。1月24日晚，经省卫生健康委组织省级临床专家对该病例进行评估，确认为新型冠状病毒感染的肺炎确诊病例。现医院正组织全力救治，患者病情稳定，市卫健委已对5名密切接触者进行追踪随访。
3,2020-01-24,2020-01-22,2020-01-18,24,男,长治,长子,朱镇同昱村,1,0,0,0,1,0,,1,K1366,1,私家车,长医附属和平医院,"1月24日，山西省卫生健康委确认长治市一例新型冠状病毒感染的肺炎确诊病例。

患者姓名高某，男性，26岁，武汉华中科技大学学生，为长子县丹朱镇同昱村人。该患者2020年1月18日晚23点乘火车从武汉回到长治，随即乘私家车回到长子家中。1月22日晚10时20分患者自测体温37.8—37.9℃，随后到长子县人民医院就诊。长子县人民医院对其进行了医学隔离观察。1月23日晚10时，长治市卫健委组织市级专家一行对其进行会诊。1月24日上午10时，转诊至市级定点医院长医附属和平医院。现市级定点医院正组织救治，患者病情稳定，并将患者密切接触者5人在当地医疗机构进行隔离医学观察。"
4,2020-01-24,,,,,太原,,,1,0,0,0,1,,,,,,,,
5,2020-01-24,,,,,运城,河津,,1,0,0,0,1,,,,,,,,
6,2020-01-24,,,,,运城,芮城,,1,0,0,0,1,,,,,,,,
7,2020-01-25,,2020-01-20,,,晋中,平遥,,1,0,0,0,1,1,CZ5882,0,,1,晋C60695,,
8,2020-01-25,,,,,晋中,平遥,,1,0,0,0,1,,,,,,,,
9,2020-01-25,,,,,阳泉,,,1,0,0,0,1,,,,,,,,
